Foundation Math Learning - APH101-Biostatistics And R
…
sapply(x, quantile, probs = 1:3/4)

       a      beta logic
25% 3.25 0.2516074   0.0
50% 5.50 1.0000000   0.5
75% 7.75 5.0536690   1.0

# select

starwars %>% select(hair_color, skin_color, eye_color)

# A tibble: 87 × 3
   hair_color    skin_color  eye_color
   <chr>         <chr>       <chr>    
 1 blond         fair        blue     
 2 <NA>          gold        yellow   
 3 <NA>          white, blue red      
 4 none          white       yellow   
 5 brown         light       brown    
 6 brown, grey   light       blue     
 7 brown         light       blue     
 8 <NA>          white, red  red      
 9 black         light       brown    
10 auburn, white fair        blue-gray
# ℹ 77 more rows
…
# A tibble: 3 × 14
  name  height  mass hair_color skin_color  eye_color birth_year sex   gender   
  <chr>  <int> <dbl> <chr>      <chr>       <chr>          <dbl> <chr> <chr>    
1 C-3PO    167    75 <NA>       gold        yellow           112 none  masculine
2 R2-D2     96    32 <NA>       white, blue red               33 none  masculine
3 R5-D4     97    32 <NA>       white, red  red               NA none  masculine
# ℹ 5 more variables: homeworld <chr>, species <chr>, films <list>,
#   vehicles <list>, starships <list>

# arrange
starwars %>% arrange(desc(height))

# A tibble: 87 × 14
   name     height  mass hair_color skin_color eye_color birth_year sex   gender
   <chr>     <int> <dbl> <chr>      <chr>      <chr>          <dbl> <chr> <chr> 
 1 Yarael …    264    NA none       white      yellow          NA   male  mascu…
 2 Tarfful     234   136 brown      brown      blue            NA   male  mascu…
 3 Lama Su     229    88 none       grey       black           NA   male  mascu…
 4 Chewbac…    228   112 brown      unknown    blue           200   male  mascu…
 5 Roos Ta…    224    82 none       grey       orange          NA   male  mascu…
 6 Grievous    216   159 none       brown, wh… green, y…       NA   male  mascu…
 7 Taun We     213    NA none       grey       black           NA   fema… femin…
 8 Rugor N…    206    NA none       green      orange          NA   male  mascu…
 9 Tion Me…    206    80 none       grey       black           NA   male  mascu…
10 Darth V…    202   136 none       white      yellow          41.9 male  mascu…
# ℹ 77 more rows
# ℹ 5 more variables: homeworld <chr>, species <chr>, films <list>,
#   vehicles <list>, starships <list>
…
# summarise

starwars %>% 
  group_by(species) %>% 
  summarise(mean_height = mean(height, na.rm = TRUE)) %>% 
  arrange(desc(mean_height))

# A tibble: 38 × 2
   species  mean_height
   <chr>          <dbl>
 1 Quermian        264 
 2 Wookiee         231 
 3 Kaminoan        221 
 4 Kaleesh         216 
 5 Gungan          209.
 6 Pau'an          206 
 7 Besalisk        198 
 8 Cerean          198 
 9 Chagrian        196 
10 Nautolan        196 
# ℹ 28 more rows
…
