Foundation Math Learning - APH101 Biostatistics And R + MTH113 Intro to Probability and Statistics+APH003 Exploring the World Through Data
…
arrange

This function is used to sort the rows of a data frame by one or more columns. The default sorting of the number in the dataset is in ascending order, but you can use the desc() function to sort in descending order.

starwars %>% arrange(desc(name)) #The default sorting is in ascending order

# A tibble: 87 × 14
   name     height  mass hair_color skin_color eye_color birth_year sex   gender
   <chr>     <int> <dbl> <chr>      <chr>      <chr>          <dbl> <chr> <chr> 
 1 Zam Wes…    168    55 blonde     fair, gre… yellow            NA fema… femin…
 2 Yoda         66    17 white      green      brown            896 male  mascu…
 3 Yarael …    264    NA none       white      yellow            NA male  mascu…
 4 Wilhuff…    180    NA auburn, g… fair       blue              64 male  mascu…
 5 Wicket …     88    20 brown      brown      brown              8 male  mascu…
 6 Wedge A…    170    77 brown      fair       hazel             21 male  mascu…
 7 Watto       137    NA black      blue, grey yellow            NA male  mascu…
 8 Wat Tam…    193    48 none       green, gr… unknown           NA male  mascu…
 9 Tion Me…    206    80 none       grey       black             NA male  mascu…
10 Taun We     213    NA none       grey       black             NA fema… femin…
# ℹ 77 more rows
# ℹ 5 more variables: homeworld <chr>, species <chr>, films <list>,
#   vehicles <list>, starships <list>
…
# A tibble: 3 × 14
  name      height  mass hair_color skin_color eye_color birth_year sex   gender
  <chr>      <int> <dbl> <chr>      <chr>      <chr>          <dbl> <chr> <chr> 
1 C-3PO        167    75 <NA>       gold       yellow         112   none  mascu…
2 R2-D2         96    32 <NA>       white, bl… red             33   none  mascu…
3 Darth Va…    202   136 none       white      yellow          41.9 male  mascu…
# ℹ 5 more variables: homeworld <chr>, species <chr>, films <list>,
#   vehicles <list>, starships <list>

arrange

starwars %>% arrange(desc(name)) #The default sorting is in ascending order

# A tibble: 87 × 14
   name     height  mass hair_color skin_color eye_color birth_year sex   gender
   <chr>     <int> <dbl> <chr>      <chr>      <chr>          <dbl> <chr> <chr> 
 1 Zam Wes…    168    55 blonde     fair, gre… yellow            NA fema… femin…
 2 Yoda         66    17 white      green      brown            896 male  mascu…
 3 Yarael …    264    NA none       white      yellow            NA male  mascu…
 4 Wilhuff…    180    NA auburn, g… fair       blue              64 male  mascu…
 5 Wicket …     88    20 brown      brown      brown              8 male  mascu…
 6 Wedge A…    170    77 brown      fair       hazel             21 male  mascu…
 7 Watto       137    NA black      blue, grey yellow            NA male  mascu…
 8 Wat Tam…    193    48 none       green, gr… unknown           NA male  mascu…
 9 Tion Me…    206    80 none       grey       black             NA male  mascu…
10 Taun We     213    NA none       grey       black             NA fema… femin…
# ℹ 77 more rows
# ℹ 5 more variables: homeworld <chr>, species <chr>, films <list>,
#   vehicles <list>, starships <list>
…
